<?xml version="1.0" encoding="UTF-8" standalone="no"?>
<!-- Created with Inkscape (http://www.inkscape.org/) -->

<svg
   xmlns:dc="http://purl.org/dc/elements/1.1/"
   xmlns:cc="http://creativecommons.org/ns#"
   xmlns:rdf="http://www.w3.org/1999/02/22-rdf-syntax-ns#"
   xmlns:svg="http://www.w3.org/2000/svg"
   xmlns="http://www.w3.org/2000/svg"
   xmlns:sodipodi="http://sodipodi.sourceforge.net/DTD/sodipodi-0.dtd"
   xmlns:inkscape="http://www.inkscape.org/namespaces/inkscape"
   width="600"
   height="600"
   viewBox="0 0 158.75 158.75"
   version="1.1"
   id="svg8"
   sodipodi:docname="xyz_curve_figure_1.svg"
   inkscape:version="0.92.1 r">
  <defs
     id="defs2" />
  <sodipodi:namedview
     id="base"
     pagecolor="#ffffff"
     bordercolor="#666666"
     borderopacity="1.0"
     inkscape:pageopacity="0.0"
     inkscape:pageshadow="2"
     inkscape:zoom="1"
     inkscape:cx="200"
     inkscape:cy="221.10818"
     inkscape:document-units="cm"
     inkscape:current-layer="layer1"
     showgrid="false"
     units="px"
     inkscape:showpageshadow="false"
     inkscape:snap-bbox="true"
     inkscape:bbox-paths="true"
     inkscape:bbox-nodes="true"
     inkscape:snap-bbox-midpoints="true"
     inkscape:snap-bbox-edge-midpoints="true"
     inkscape:object-paths="true"
     inkscape:snap-intersection-paths="true"
     inkscape:snap-midpoints="true"
     inkscape:snap-smooth-nodes="true"
     inkscape:snap-global="false"
     inkscape:window-width="1920"
     inkscape:window-height="1009"
     inkscape:window-x="0"
     inkscape:window-y="34"
     inkscape:window-maximized="1"
     showguides="true"
     inkscape:guide-bbox="true" />
  <metadata
     id="metadata5">
    <rdf:RDF>
      <cc:Work
         rdf:about="">
        <dc:format>image/svg+xml</dc:format>
        <dc:type
           rdf:resource="http://purl.org/dc/dcmitype/StillImage" />
        <dc:title></dc:title>
      </cc:Work>
    </rdf:RDF>
  </metadata>
  <g
     inkscape:label="Layer 1"
     inkscape:groupmode="layer"
     id="layer1"
     transform="translate(0,-138.25002)">
    <g
       id="g4830"
       transform="matrix(1.5,0,0,1.5,5.5792426e-7,-148.50001)">
      <text
         id="text4491"
         y="248.886"
         x="101.26339"
         style="font-style:normal;font-variant:normal;font-weight:normal;font-stretch:normal;font-size:22.40138817px;line-height:14.00086689px;font-family:monospace;-inkscape-font-specification:monospace;letter-spacing:0px;word-spacing:0px;fill:#666666;fill-opacity:1;stroke:none;stroke-width:0.56003469px;stroke-linecap:butt;stroke-linejoin:miter;stroke-opacity:1"
         xml:space="preserve"><tspan
           style="font-style:normal;font-variant:normal;font-weight:normal;font-stretch:normal;font-size:5.2269907px;font-family:sans-serif;-inkscape-font-specification:sans-serif;fill:#666666;stroke-width:0.56003469px"
           y="248.886"
           x="101.26339"
           id="tspan4489"
           sodipodi:role="line">x</tspan></text>
      <text
         xml:space="preserve"
         style="font-style:normal;font-variant:normal;font-weight:normal;font-stretch:normal;font-size:22.40138817px;line-height:14.00086689px;font-family:monospace;-inkscape-font-specification:monospace;letter-spacing:0px;word-spacing:0px;fill:#666666;fill-opacity:1;stroke:none;stroke-width:0.56003469px;stroke-linecap:butt;stroke-linejoin:miter;stroke-opacity:1"
         x="47.369373"
         y="195.41083"
         id="text4495"><tspan
           sodipodi:role="line"
           id="tspan4493"
           x="47.369373"
           y="195.41083"
           style="font-style:normal;font-variant:normal;font-weight:normal;font-stretch:normal;font-size:5.2269907px;font-family:sans-serif;-inkscape-font-specification:sans-serif;fill:#666666;stroke-width:0.56003469px">y</tspan></text>
      <g
         style="fill:none"
         transform="matrix(1.6,0,0,1.6,-3.88e-6,-178.19999)"
         id="g5006">
        <path
           style="fill:none;fill-rule:evenodd;stroke:#cccccc;stroke-width:0.39447445;stroke-linecap:round;stroke-linejoin:round;stroke-miterlimit:4;stroke-dasharray:none;stroke-opacity:1"
           d="m 33.072915,231.05422 v 65.74574"
           id="path4485"
           inkscape:connector-curvature="0"
           sodipodi:nodetypes="cc" />
        <path
           sodipodi:nodetypes="cc"
           inkscape:connector-curvature="0"
           id="path4518"
           d="m 54.137855,232.11256 v 63.62907"
           style="fill:none;fill-rule:evenodd;stroke:#cccccc;stroke-width:0.13149148;stroke-linecap:round;stroke-linejoin:round;stroke-miterlimit:4;stroke-dasharray:none;stroke-opacity:1" />
        <path
           style="fill:none;fill-rule:evenodd;stroke:#cccccc;stroke-width:0.13149148;stroke-linecap:round;stroke-linejoin:round;stroke-miterlimit:4;stroke-dasharray:none;stroke-opacity:1"
           d="m 59.371212,232.11256 v 63.62907"
           id="path4520"
           inkscape:connector-curvature="0"
           sodipodi:nodetypes="cc" />
        <path
           sodipodi:nodetypes="cc"
           inkscape:connector-curvature="0"
           id="path4524"
           d="m 22.474694,232.11256 v 63.62907"
           style="fill:none;fill-rule:evenodd;stroke:#cccccc;stroke-width:0.13149148;stroke-linecap:round;stroke-linejoin:round;stroke-miterlimit:4;stroke-dasharray:none;stroke-opacity:1" />
        <path
           style="fill:none;fill-rule:evenodd;stroke:#cccccc;stroke-width:0.13149148;stroke-linecap:round;stroke-linejoin:round;stroke-miterlimit:4;stroke-dasharray:none;stroke-opacity:1"
           d="m 6.7746199,232.11256 v 63.62907"
           id="path4526"
           inkscape:connector-curvature="0"
           sodipodi:nodetypes="cc" />
        <path
           style="fill:none;fill-rule:evenodd;stroke:#cccccc;stroke-width:0.13149148;stroke-linecap:round;stroke-linejoin:round;stroke-miterlimit:4;stroke-dasharray:none;stroke-opacity:1"
           d="m 43.671137,232.11256 v 63.62907"
           id="path4530"
           inkscape:connector-curvature="0"
           sodipodi:nodetypes="cc" />
        <path
           sodipodi:nodetypes="cc"
           inkscape:connector-curvature="0"
           id="path4532"
           d="m 38.437779,232.11256 v 63.62907"
           style="fill:none;fill-rule:evenodd;stroke:#cccccc;stroke-width:0.13149148;stroke-linecap:round;stroke-linejoin:round;stroke-miterlimit:4;stroke-dasharray:none;stroke-opacity:1" />
        <path
           style="fill:none;fill-rule:evenodd;stroke:#cccccc;stroke-width:0.13149148;stroke-linecap:round;stroke-linejoin:round;stroke-miterlimit:4;stroke-dasharray:none;stroke-opacity:1"
           d="m 12.007977,232.11256 v 63.62907"
           id="path4534"
           inkscape:connector-curvature="0"
           sodipodi:nodetypes="cc" />
        <path
           style="fill:none;fill-rule:evenodd;stroke:#cccccc;stroke-width:0.13149148;stroke-linecap:round;stroke-linejoin:round;stroke-miterlimit:4;stroke-dasharray:none;stroke-opacity:1"
           d="m 48.904495,232.11256 v 63.62907"
           id="path4602"
           inkscape:connector-curvature="0"
           sodipodi:nodetypes="cc" />
        <path
           style="fill:none;fill-rule:evenodd;stroke:#cccccc;stroke-width:0.13149148;stroke-linecap:round;stroke-linejoin:round;stroke-miterlimit:4;stroke-dasharray:none;stroke-opacity:1"
           d="m 27.708052,232.11256 v 63.62907"
           id="path4604"
           inkscape:connector-curvature="0"
           sodipodi:nodetypes="cc" />
        <path
           sodipodi:nodetypes="cc"
           inkscape:connector-curvature="0"
           id="path4606"
           d="m 17.241335,232.11256 v 63.62907"
           style="fill:none;fill-rule:evenodd;stroke:#cccccc;stroke-width:0.13149148;stroke-linecap:round;stroke-linejoin:round;stroke-miterlimit:4;stroke-dasharray:none;stroke-opacity:1" />
        <g
           style="fill:none"
           transform="matrix(0,1.3149148,-1.3149148,0,423.60264,263.72983)"
           id="g4959">
          <path
             sodipodi:nodetypes="cc"
             inkscape:connector-curvature="0"
             id="path4929"
             d="m 16.170018,272.80489 v 48.39026"
             style="fill:none;fill-rule:evenodd;stroke:#cccccc;stroke-width:0.1;stroke-linecap:round;stroke-linejoin:round;stroke-miterlimit:4;stroke-dasharray:none;stroke-opacity:1" />
          <path
             style="fill:none;fill-rule:evenodd;stroke:#cccccc;stroke-width:0.1;stroke-linecap:round;stroke-linejoin:round;stroke-miterlimit:4;stroke-dasharray:none;stroke-opacity:1"
             d="m 20.150015,272.80489 v 48.39026"
             id="path4931"
             inkscape:connector-curvature="0"
             sodipodi:nodetypes="cc" />
          <path
             sodipodi:nodetypes="cc"
             inkscape:connector-curvature="0"
             id="path4933"
             d="m -7.9099918,272.80489 v 48.39026"
             style="fill:none;fill-rule:evenodd;stroke:#cccccc;stroke-width:0.1;stroke-linecap:round;stroke-linejoin:round;stroke-miterlimit:4;stroke-dasharray:none;stroke-opacity:1" />
          <path
             style="fill:none;fill-rule:evenodd;stroke:#cccccc;stroke-width:0.1;stroke-linecap:round;stroke-linejoin:round;stroke-miterlimit:4;stroke-dasharray:none;stroke-opacity:1"
             d="m -19.849985,272.80489 v 48.39026"
             id="path4935"
             inkscape:connector-curvature="0"
             sodipodi:nodetypes="cc" />
          <path
             style="fill:none;fill-rule:evenodd;stroke:#cccccc;stroke-width:0.1;stroke-linecap:round;stroke-linejoin:round;stroke-miterlimit:4;stroke-dasharray:none;stroke-opacity:1"
             d="m 8.2100209,272.80489 v 48.39026"
             id="path4937"
             inkscape:connector-curvature="0"
             sodipodi:nodetypes="cc" />
          <path
             sodipodi:nodetypes="cc"
             inkscape:connector-curvature="0"
             id="path4939"
             d="m 4.2300228,272.80489 v 48.39026"
             style="fill:none;fill-rule:evenodd;stroke:#cccccc;stroke-width:0.1;stroke-linecap:round;stroke-linejoin:round;stroke-miterlimit:4;stroke-dasharray:none;stroke-opacity:1" />
          <path
             style="fill:none;fill-rule:evenodd;stroke:#cccccc;stroke-width:0.1;stroke-linecap:round;stroke-linejoin:round;stroke-miterlimit:4;stroke-dasharray:none;stroke-opacity:1"
             d="m -15.869988,272.80489 v 48.39026"
             id="path4941"
             inkscape:connector-curvature="0"
             sodipodi:nodetypes="cc" />
          <path
             style="fill:none;fill-rule:evenodd;stroke:#cccccc;stroke-width:0.1;stroke-linecap:round;stroke-linejoin:round;stroke-miterlimit:4;stroke-dasharray:none;stroke-opacity:1"
             d="m 12.190019,272.80489 v 48.39026"
             id="path4943"
             inkscape:connector-curvature="0"
             sodipodi:nodetypes="cc" />
          <path
             style="fill:none;fill-rule:evenodd;stroke:#cccccc;stroke-width:0.1;stroke-linecap:round;stroke-linejoin:round;stroke-miterlimit:4;stroke-dasharray:none;stroke-opacity:1"
             d="m -3.9299937,272.80489 v 48.39026"
             id="path4945"
             inkscape:connector-curvature="0"
             sodipodi:nodetypes="cc" />
          <path
             sodipodi:nodetypes="cc"
             inkscape:connector-curvature="0"
             id="path4947"
             d="m -11.88999,272.80489 v 48.39026"
             style="fill:none;fill-rule:evenodd;stroke:#cccccc;stroke-width:0.1;stroke-linecap:round;stroke-linejoin:round;stroke-miterlimit:4;stroke-dasharray:none;stroke-opacity:1" />
        </g>
        <path
           sodipodi:nodetypes="cc"
           inkscape:connector-curvature="0"
           id="path4621"
           d="M 65.945788,263.92709 H 0.2000481"
           style="fill:none;fill-rule:evenodd;stroke:#cccccc;stroke-width:0.39447445;stroke-linecap:round;stroke-linejoin:round;stroke-miterlimit:4;stroke-dasharray:none;stroke-opacity:1" />
      </g>
      <path
         sodipodi:nodetypes="cc"
         inkscape:connector-curvature="0"
         id="path4769"
         d="m 19.21276,218.75282 32.375836,-7.83729"
         style="fill:none;fill-rule:evenodd;stroke:#00afdb;stroke-width:0.26458332px;stroke-linecap:butt;stroke-linejoin:miter;stroke-opacity:1" />
      <path
         style="fill:none;fill-rule:evenodd;stroke:#00afdb;stroke-width:0.26458332px;stroke-linecap:butt;stroke-linejoin:miter;stroke-opacity:1"
         d="M 45.871352,268.87779 78.247188,261.0405"
         id="path4773"
         inkscape:connector-curvature="0"
         sodipodi:nodetypes="cc" />
      <path
         sodipodi:nodetypes="ccc"
         inkscape:connector-curvature="0"
         id="path4706"
         d="m 19.135079,218.81478 c 33.781581,-8.43533 25.1978,50.5991 59.112112,42.22574 v 0"
         style="fill:none;fill-rule:evenodd;stroke:#000000;stroke-width:0.56;stroke-linecap:butt;stroke-linejoin:miter;stroke-miterlimit:4;stroke-dasharray:none;stroke-opacity:1" />
      <text
         id="text4710"
         y="276.72568"
         x="35.417999"
         style="font-style:normal;font-weight:normal;font-size:8.21384239px;line-height:14.00086689px;font-family:sans-serif;letter-spacing:0px;word-spacing:0px;fill:#000000;fill-opacity:1;stroke:none;stroke-width:0.56003469px;stroke-linecap:butt;stroke-linejoin:miter;stroke-opacity:1"
         xml:space="preserve"><tspan
           style="font-size:5.2269907px;stroke-width:0.56003469px"
           y="276.72568"
           x="35.417999"
           id="tspan4708"
           sodipodi:role="line">⟨-4, -1⟩</tspan></text>
      <text
         xml:space="preserve"
         style="font-style:normal;font-weight:normal;font-size:8.21384239px;line-height:14.00086689px;font-family:sans-serif;letter-spacing:0px;word-spacing:0px;fill:#000000;fill-opacity:1;stroke:none;stroke-width:0.56003469px;stroke-linecap:butt;stroke-linejoin:miter;stroke-opacity:1"
         x="11.220966"
         y="215.25583"
         id="text4714"><tspan
           sodipodi:role="line"
           id="tspan4712"
           x="11.220966"
           y="215.25583"
           style="font-size:5.2269907px;stroke-width:0.56003469px">(-4, 3)</tspan></text>
      <text
         xml:space="preserve"
         style="font-style:normal;font-weight:normal;font-size:8.21384239px;line-height:14.00086689px;font-family:sans-serif;letter-spacing:0px;word-spacing:0px;fill:#000000;fill-opacity:1;stroke:none;stroke-width:0.56003469px;stroke-linecap:butt;stroke-linejoin:miter;stroke-opacity:1"
         x="70.28714"
         y="268.41391"
         id="text4718"><tspan
           sodipodi:role="line"
           id="tspan4716"
           x="70.28714"
           y="268.41391"
           style="font-size:5.2269907px;stroke-width:0.56003469px">(3, -2)</tspan></text>
      <circle
         cx="19.197998"
         cy="218.742"
         r="1.3962181"
         id="path4720"
         style="opacity:1;fill:#ff2a2a;fill-opacity:1;stroke:none;stroke-width:0.21166667;stroke-linecap:round;stroke-linejoin:round;stroke-miterlimit:4;stroke-dasharray:none;stroke-opacity:1" />
      <circle
         r="1.3962181"
         cy="210.48465"
         cx="52.916664"
         id="path4724"
         style="opacity:1;fill:none;fill-opacity:1;stroke:#00afdb;stroke-width:0.49999997;stroke-linecap:round;stroke-linejoin:round;stroke-miterlimit:4;stroke-dasharray:none;stroke-opacity:1" />
      <text
         id="text55"
         y="219.82401"
         x="7.5526118"
         style="font-style:normal;font-weight:normal;font-size:3.88055563px;line-height:6.61458254px;font-family:sans-serif;letter-spacing:0px;word-spacing:0px;fill:#000000;fill-opacity:1;stroke:none;stroke-width:0.26458332px;stroke-linecap:butt;stroke-linejoin:miter;stroke-opacity:1"
         xml:space="preserve"><tspan
           style="stroke-width:0.26458332px"
           y="219.82401"
           x="7.5526118"
           id="tspan53"
           sodipodi:role="line">start</tspan></text>
      <text
         xml:space="preserve"
         style="font-style:normal;font-weight:normal;font-size:3.88055563px;line-height:6.61458254px;font-family:sans-serif;letter-spacing:0px;word-spacing:0px;fill:#000000;fill-opacity:1;stroke:none;stroke-width:0.26458332px;stroke-linecap:butt;stroke-linejoin:miter;stroke-opacity:1"
         x="81.957779"
         y="262.72018"
         id="text59"><tspan
           sodipodi:role="line"
           id="tspan57"
           x="81.957779"
           y="262.72018"
           style="stroke-width:0.26458332px">end</tspan></text>
      <text
         id="text63"
         y="270.4122"
         x="10.352009"
         style="font-style:normal;font-weight:normal;font-size:3.88055563px;line-height:6.61458254px;font-family:sans-serif;letter-spacing:0px;word-spacing:0px;fill:#000000;fill-opacity:1;stroke:none;stroke-width:0.26458332px;stroke-linecap:butt;stroke-linejoin:miter;stroke-opacity:1"
         xml:space="preserve"><tspan
           style="stroke-width:0.26458332px"
           y="270.4122"
           x="10.352009"
           id="tspan61"
           sodipodi:role="line">arrive_direction</tspan></text>
      <circle
         style="opacity:1;fill:#ff2a2a;fill-opacity:1;stroke:none;stroke-width:0.21166667;stroke-linecap:round;stroke-linejoin:round;stroke-miterlimit:4;stroke-dasharray:none;stroke-opacity:1"
         id="circle4763"
         r="1.3962181"
         cy="261.04147"
         cx="78.264168" />
      <text
         xml:space="preserve"
         style="font-style:normal;font-weight:normal;font-size:3.88055563px;line-height:6.61458254px;font-family:sans-serif;letter-spacing:0px;word-spacing:0px;fill:#000000;fill-opacity:1;stroke:none;stroke-width:0.26458332px;stroke-linecap:butt;stroke-linejoin:miter;stroke-opacity:1"
         x="57.339314"
         y="211.50121"
         id="text4767"><tspan
           sodipodi:role="line"
           id="tspan4765"
           x="57.339314"
           y="211.50121"
           style="stroke-width:0.26458332px">go_direction</tspan></text>
      <circle
         r="1.3962181"
         cy="269.39563"
         cx="44.339359"
         style="opacity:1;fill:none;fill-opacity:1;stroke:#00afdb;stroke-width:0.49999997;stroke-linecap:butt;stroke-linejoin:round;stroke-miterlimit:4;stroke-dasharray:none;stroke-opacity:1"
         id="path4771" />
      <text
         xml:space="preserve"
         style="font-style:normal;font-weight:normal;font-size:8.21384239px;line-height:14.00086689px;font-family:sans-serif;letter-spacing:0px;word-spacing:0px;fill:#000000;fill-opacity:1;stroke:none;stroke-width:0.56003469px;stroke-linecap:butt;stroke-linejoin:miter;stroke-opacity:1"
         x="45.883961"
         y="205.93742"
         id="text4777"><tspan
           sodipodi:role="line"
           id="tspan4775"
           x="45.883961"
           y="205.93742"
           style="font-size:5.2269907px;stroke-width:0.56003469px">⟨4, 1⟩</tspan></text>
    </g>
  </g>
</svg>
